0	0
0.01663	0.0198495
0.03326	0.0396592
0.04989	0.0594293
0.06652	0.0791596
0.08315	0.0988501
0.09978	0.118501
0.11641	0.138112
0.13304	0.157683
0.14967	0.177215
0.1663	0.196707
0.18293	0.216159
0.19956	0.235572
0.21619	0.254944
0.23282	0.274277
0.24945	0.293571
0.26608	0.312824
0.28271	0.332038
0.29934	0.351212
0.31597	0.370346
0.3326	0.389441
0.34923	0.408496
0.36586	0.427511
0.38249	0.446486
0.39912	0.465422
0.41575	0.484318
0.43238	0.503174
0.44901	0.521991
0.46564	0.540767
0.48227	0.559504
0.4989	0.578202
0.51553	0.596859
0.53216	0.615477
0.54879	0.634055
0.56542	0.652594
0.58205	0.671092
0.59868	0.689551
0.61531	0.70797
0.63194	0.72635
0.64857	0.744689
0.6652	0.762989
0.68183	0.78125
0.69846	0.79947
0.71509	0.817651
0.73172	0.835792
0.74835	0.853893
0.76498	0.871955
0.78161	0.889977
0.79824	0.907959
0.81487	0.925901
0.8315	0.943804
0.84813	0.961667
0.86476	0.97949
0.88139	0.997274
0.89802	1.01502
0.91465	1.03272
0.93128	1.05039
0.94791	1.06801
0.96454	1.0856
0.98117	1.10314
0.9978	1.12065
1.01443	1.13811
1.03106	1.15554
1.04769	1.17292
1.06432	1.19027
1.08095	1.20758
1.09758	1.22484
1.11421	1.24207
1.13084	1.25926
1.14747	1.27641
1.1641	1.29351
1.18073	1.31058
1.19736	1.32761
1.21399	1.3446
1.23062	1.36155
1.24725	1.37846
1.26388	1.39533
1.28051	1.41216
1.29714	1.42895
1.31377	1.4457
1.3304	1.46241
1.34703	1.47908
1.36366	1.49571
1.38029	1.5123
1.39692	1.52886
1.41355	1.54537
1.43018	1.56184
1.44681	1.57827
1.46344	1.59467
1.48007	1.61102
1.4967	1.62733
1.51333	1.64361
1.52996	1.65984
1.54659	1.67603
1.56322	1.69219
1.57985	1.7083
1.59648	1.72438
1.61311	1.74041
1.62974	1.75641
1.64637	1.77236
1.663	1.78828
1.67963	1.80416
1.69626	1.81999
1.71289	1.83579
1.72952	1.85155
1.74615	1.86727
1.76278	1.88294
1.77941	1.89858
1.79604	1.91418
1.81267	1.92974
1.8293	1.94526
1.84593	1.96074
1.86256	1.97618
1.87919	1.99158
1.89582	2.00694
1.91245	2.02226
1.92908	2.03754
1.94571	2.05278
1.96234	2.06798
1.97897	2.08314
1.9956	2.09826
2.01223	2.11334
2.02886	2.12838
2.04549	2.14339
2.06212	2.15835
2.07875	2.17327
2.09538	2.18815
2.11201	2.203
2.12864	2.2178
2.14527	2.23257
2.1619	2.24729
2.17853	2.26197
2.19516	2.27662
2.21179	2.29122
2.22842	2.30579
2.24505	2.32032
2.26168	2.3348
2.27831	2.34925
2.29494	2.36365
2.31157	2.37802
2.3282	2.39235
2.34483	2.40663
2.36146	2.42088
2.37809	2.43509
2.39472	2.44926
2.41135	2.46339
2.42798	2.47747
2.44461	2.49152
2.46124	2.50553
2.47787	2.5195
2.4945	2.53343
2.51113	2.54732
2.52776	2.56117
2.54439	2.57498
2.56102	2.58875
2.57765	2.60248
2.59428	2.61617
2.61091	2.62983
2.62754	2.64344
2.64417	2.65701
2.6608	2.67054
2.67743	2.68403
2.69406	2.69749
2.71069	2.7109
2.72732	2.72427
2.74395	2.73761
2.76058	2.7509
2.77721	2.76416
2.79384	2.77737
2.81047	2.79054
2.8271	2.80368
2.84373	2.81677
2.86036	2.82983
2.87699	2.84285
2.89362	2.85582
2.91025	2.86876
2.92688	2.88165
2.94351	2.89451
2.96014	2.90733
2.97677	2.92011
2.9934	2.93284
3.01003	2.94554
3.02666	2.9582
3.04329	2.97082
3.05992	2.9834
3.07655	2.99594
3.09318	3.00844
3.10981	3.02089
3.12644	3.03331
3.14307	3.04569
3.1597	3.05804
3.17633	3.07034
3.19296	3.0826
3.20959	3.09482
3.22622	3.107
3.24285	3.11914
3.25948	3.13124
3.27611	3.14331
3.29274	3.15533
3.30937	3.16731
3.326	3.17925
3.34263	3.19116
3.35926	3.20302
3.37589	3.21484
3.39252	3.22663
3.40915	3.23837
3.42578	3.25008
3.44241	3.26174
3.45904	3.27337
3.47567	3.28495
3.4923	3.2965
3.50893	3.308
3.52556	3.31947
3.54219	3.3309
3.55882	3.34228
3.57545	3.35363
3.59208	3.36494
3.60871	3.37621
3.62534	3.38743
3.64197	3.39862
3.6586	3.40977
3.67523	3.42088
3.69186	3.43195
3.70849	3.44298
3.72512	3.45397
3.74175	3.46492
3.75838	3.47583
3.77501	3.4867
3.79164	3.49753
3.80827	3.50832
3.8249	3.51907
3.84153	3.52978
3.85816	3.54045
3.87479	3.55109
3.89142	3.56168
3.90805	3.57223
3.92468	3.58274
3.94131	3.59322
3.95794	3.60365
3.97457	3.61404
3.9912	3.6244
4.00783	3.63471
4.02446	3.64498
4.04109	3.65522
4.05772	3.66541
4.07435	3.67557
4.09098	3.68568
4.10761	3.69576
4.12424	3.7058
4.14087	3.71579
4.1575	3.72575
4.17413	3.73567
4.19076	3.74554
4.20739	3.75538
4.22402	3.76518
4.24065	3.77494
4.25728	3.78465
4.27391	3.79433
4.29054	3.80397
4.30717	3.81357
4.3238	3.82313
4.34043	3.83265
4.35706	3.84213
4.37369	3.85157
4.39032	3.86097
4.40695	3.87033
4.42358	3.87965
4.44021	3.88893
4.45684	3.89817
4.47347	3.90737
4.4901	3.91654
4.50673	3.92566
4.52336	3.93474
4.53999	3.94378
4.55662	3.95279
4.57325	3.96175
4.58988	3.97067
4.60651	3.97956
4.62314	3.9884
4.63977	3.99721
4.6564	4.00597
4.67303	4.01469
4.68966	4.02338
4.70629	4.03203
4.72292	4.04063
4.73955	4.0492
4.75618	4.05772
4.77281	4.06621
4.78944	4.07466
4.80607	4.08306
4.8227	4.09143
4.83933	4.09976
4.85596	4.10805
4.87259	4.11629
4.88922	4.1245
4.90585	4.13267
4.92248	4.1408
4.93911	4.14889
4.95574	4.15694
4.97237	4.16495
4.989	4.17292
5.00563	4.18085
5.02226	4.18874
5.03889	4.19659
5.05552	4.2044
5.07215	4.21217
5.08878	4.2199
5.10541	4.2276
5.12204	4.23525
5.13867	4.24286
5.1553	4.25043
5.17193	4.25797
5.18856	4.26546
5.20519	4.27291
5.22182	4.28033
5.23845	4.2877
5.25508	4.29503
5.27171	4.30233
5.28834	4.30958
5.30497	4.3168
5.3216	4.32397
5.33823	4.33111
5.35486	4.33821
5.37149	4.34526
5.38812	4.35228
5.40475	4.35925
5.42138	4.36619
5.43801	4.37309
5.45464	4.37995
5.47127	4.38676
5.4879	4.39354
5.50453	4.40028
5.52116	4.40698
5.53779	4.41364
5.55442	4.42026
5.57105	4.42684
5.58768	4.43338
5.60431	4.43988
5.62094	4.44634
5.63757	4.45276
5.6542	4.45914
5.67083	4.46548
5.68746	4.47178
5.70409	4.47804
5.72072	4.48426
5.73735	4.49045
5.75398	4.49659
5.77061	4.50269
5.78724	4.50875
5.80387	4.51478
5.8205	4.52076
5.83713	4.5267
5.85376	4.53261
5.87039	4.53847
5.88702	4.5443
5.90365	4.55008
5.92028	4.55583
5.93691	4.56153
5.95354	4.5672
5.97017	4.57282
5.9868	4.57841
6.00343	4.58396
6.02006	4.58946
6.03669	4.59493
6.05332	4.60036
6.06995	4.60574
6.08658	4.61109
6.10321	4.6164
6.11984	4.62167
6.13647	4.6269
6.1531	4.63208
6.16973	4.63723
6.18636	4.64234
6.20299	4.64741
6.21962	4.65244
6.23625	4.65743
6.25288	4.66238
6.26951	4.66729
6.28614	4.67216
6.30277	4.677
6.3194	4.68179
6.33603	4.68654
6.35266	4.69125
6.36929	4.69592
6.38592	4.70056
6.40255	4.70515
6.41918	4.7097
6.43581	4.71422
6.45244	4.71869
6.46907	4.72312
6.4857	4.72752
6.50233	4.73187
6.51896	4.73619
6.53559	4.74046
6.55222	4.7447
6.56885	4.74889
6.58548	4.75305
6.60211	4.75716
6.61874	4.76124
6.63537	4.76528
6.652	4.76927
6.66863	4.77323
6.68526	4.77715
6.70189	4.78103
6.71852	4.78486
6.73515	4.78866
6.75178	4.79242
6.76841	4.79614
6.78504	4.79982
6.80167	4.80346
6.8183	4.80706
6.83493	4.81062
6.85156	4.81414
6.86819	4.81762
6.88482	4.82106
6.90145	4.82446
6.91808	4.82782
6.93471	4.83114
6.95134	4.83442
6.96797	4.83767
6.9846	4.84087
7.00123	4.84403
7.01786	4.84715
7.03449	4.85024
7.05112	4.85328
7.06775	4.85628
7.08438	4.85925
7.10101	4.86217
7.11764	4.86506
7.13427	4.8679
7.1509	4.87071
7.16753	4.87347
7.18416	4.8762
7.20079	4.87888
7.21742	4.88153
7.23405	4.88413
7.25068	4.8867
7.26731	4.88923
7.28394	4.89172
7.30057	4.89416
7.3172	4.89657
7.33383	4.89894
7.35046	4.90127
7.36709	4.90355
7.38372	4.9058
7.40035	4.90801
7.41698	4.91018
7.43361	4.91231
7.45024	4.9144
7.46687	4.91645
7.4835	4.91846
7.50013	4.92043
7.51676	4.92236
7.53339	4.92425
7.55002	4.92611
7.56665	4.92792
7.58328	4.92969
7.59991	4.93142
7.61654	4.93311
7.63317	4.93477
7.6498	4.93638
7.66643	4.93795
7.68306	4.93949
7.69969	4.94098
7.71632	4.94243
7.73295	4.94385
7.74958	4.94522
7.76621	4.94656
7.78284	4.94785
7.79947	4.94911
7.8161	4.95033
7.83273	4.9515
7.84936	4.95264
7.86599	4.95373
7.88262	4.95479
7.89925	4.95581
7.91588	4.95679
7.93251	4.95772
7.94914	4.95862
7.96577	4.95948
7.9824	4.9603
7.99903	4.96108
8.01566	4.96181
8.03229	4.96251
8.04892	4.96317
8.06555	4.96379
8.08218	4.96437
8.09881	4.96491
8.11544	4.96541
8.13207	4.96588
8.1487	4.9663
8.16533	4.96668
8.18196	4.96702
8.19859	4.96732
8.21522	4.96758
8.23185	4.96781
8.24848	4.96799
8.26511	4.96813
8.28174	4.96823
8.29837	4.9683
8.315	4.96832
8.33163	4.96831
8.34826	4.96825
8.36489	4.96816
8.38152	4.96802
8.39815	4.96785
8.41478	4.96763
8.43141	4.96738
8.44804	4.96708
8.46467	4.96675
8.4813	4.96637
8.49793	4.96596
8.51456	4.96551
8.53119	4.96502
8.54782	4.96448
8.56445	4.96391
8.58108	4.9633
8.59771	4.96265
8.61434	4.96196
8.63097	4.96123
8.6476	4.96045
8.66423	4.95964
8.68086	4.95879
8.69749	4.9579
8.71412	4.95697
8.73075	4.956
8.74738	4.955
8.76401	4.95395
8.78064	4.95286
8.79727	4.95173
8.8139	4.95056
8.83053	4.94935
8.84716	4.94811
8.86379	4.94682
8.88042	4.94549
8.89705	4.94412
8.91368	4.94272
8.93031	4.94127
8.94694	4.93979
8.96357	4.93826
8.9802	4.93669
8.99683	4.93509
9.01346	4.93344
9.03009	4.93176
9.04672	4.93004
9.06335	4.92827
9.07998	4.92647
9.09661	4.92462
9.11324	4.92274
9.12987	4.92082
9.1465	4.91886
9.16313	4.91685
9.17976	4.91481
9.19639	4.91273
9.21302	4.91061
9.22965	4.90845
9.24628	4.90624
9.26291	4.904
9.27954	4.90172
9.29617	4.8994
9.3128	4.89704
9.32943	4.89464
9.34606	4.8922
9.36269	4.88972
9.37932	4.88721
9.39595	4.88465
9.41258	4.88205
9.42921	4.87941
9.44584	4.87673
9.46247	4.87401
9.4791	4.87126
9.49573	4.86846
9.51236	4.86562
9.52899	4.86275
9.54562	4.85983
9.56225	4.85687
9.57888	4.85388
9.59551	4.85084
9.61214	4.84777
9.62877	4.84465
9.6454	4.8415
9.66203	4.8383
9.67866	4.83507
9.69529	4.8318
9.71192	4.82848
9.72855	4.82513
9.74518	4.82174
9.76181	4.8183
9.77844	4.81483
9.79507	4.81132
9.8117	4.80777
9.82833	4.80417
9.84496	4.80054
9.86159	4.79687
9.87822	4.79316
9.89485	4.78941
9.91148	4.78562
9.92811	4.78179
9.94474	4.77792
9.96137	4.77401
9.978	4.77006
9.99463	4.76607
10.0113	4.76204
10.0279	4.75798
10.0445	4.75387
10.0612	4.74972
10.0778	4.74553
10.0944	4.7413
10.111	4.73704
10.1277	4.73273
10.1443	4.72838
10.1609	4.724
10.1776	4.71957
10.1942	4.71511
10.2108	4.7106
10.2274	4.70605
10.2441	4.70147
10.2607	4.69685
10.2773	4.69218
10.294	4.68748
10.3106	4.68273
10.3272	4.67795
10.3439	4.67313
10.3605	4.66826
10.3771	4.66336
10.3938	4.65842
10.4104	4.65343
10.427	4.64841
10.4436	4.64335
10.4603	4.63825
10.4769	4.63311
10.4935	4.62793
10.5102	4.62271
10.5268	4.61745
10.5434	4.61215
10.5601	4.60681
10.5767	4.60143
10.5933	4.59601
10.6099	4.59055
10.6266	4.58505
10.6432	4.57951
10.6598	4.57393
10.6765	4.56831
10.6931	4.56266
10.7097	4.55696
10.7264	4.55122
10.743	4.54545
10.7596	4.53963
10.7762	4.53377
10.7929	4.52788
10.8095	4.52194
10.8261	4.51597
10.8428	4.50995
10.8594	4.50389
10.876	4.4978
10.8927	4.49167
10.9093	4.48549
10.9259	4.47928
10.9425	4.47302
10.9592	4.46673
10.9758	4.4604
10.9924	4.45402
11.0091	4.44761
11.0257	4.44116
11.0423	4.43467
11.0589	4.42814
11.0756	4.42156
11.0922	4.41495
11.1088	4.4083
11.1255	4.40161
11.1421	4.39488
11.1587	4.38811
11.1754	4.3813
11.192	4.37445
11.2086	4.36756
11.2252	4.36063
11.2419	4.35366
11.2585	4.34666
11.2751	4.33961
11.2918	4.33252
11.3084	4.32539
11.325	4.31822
11.3417	4.31102
11.3583	4.30377
11.3749	4.29648
11.3916	4.28916
11.4082	4.28179
11.4248	4.27438
11.4414	4.26694
11.4581	4.25945
11.4747	4.25193
11.4913	4.24436
11.508	4.23676
11.5246	4.22912
11.5412	4.22143
11.5579	4.21371
11.5745	4.20594
11.5911	4.19814
11.6077	4.1903
11.6244	4.18242
11.641	4.17449
11.6576	4.16653
11.6743	4.15853
11.6909	4.15049
11.7075	4.14241
11.7242	4.13429
11.7408	4.12612
11.7574	4.11792
11.774	4.10968
11.7907	4.1014
11.8073	4.09308
11.8239	4.08472
11.8406	4.07633
11.8572	4.06789
11.8738	4.05941
11.8905	4.05089
11.9071	4.04233
11.9237	4.03373
11.9403	4.0251
11.957	4.01642
11.9736	4.0077
11.9902	3.99895
12.0069	3.99015
12.0235	3.98131
12.0401	3.97244
12.0567	3.96352
12.0734	3.95457
12.09	3.94557
12.1066	3.93654
12.1233	3.92746
12.1399	3.91835
12.1565	3.90919
12.1732	3.9
12.1898	3.89077
12.2064	3.88149
12.2231	3.87218
12.2397	3.86283
12.2563	3.85343
12.2729	3.844
12.2896	3.83453
12.3062	3.82502
12.3228	3.81547
12.3395	3.80588
12.3561	3.79625
12.3727	3.78658
12.3894	3.77687
12.406	3.76712
12.4226	3.75733
12.4392	3.7475
12.4559	3.73763
12.4725	3.72772
12.4891	3.71777
12.5058	3.70778
12.5224	3.69775
12.539	3.68768
12.5557	3.67758
12.5723	3.66743
12.5889	3.65724
12.6055	3.64702
12.6222	3.63675
12.6388	3.62644
12.6554	3.6161
12.6721	3.60571
12.6887	3.59529
12.7053	3.58482
12.722	3.57432
12.7386	3.56377
12.7552	3.55319
12.7718	3.54256
12.7885	3.5319
12.8051	3.5212
12.8217	3.51045
12.8384	3.49967
12.855	3.48885
12.8716	3.47798
12.8882	3.46708
12.9049	3.45614
12.9215	3.44516
12.9381	3.43414
12.9548	3.42308
12.9714	3.41198
12.988	3.40084
13.0047	3.38966
13.0213	3.37844
13.0379	3.36718
13.0545	3.35588
13.0712	3.34454
13.0878	3.33316
13.1044	3.32174
13.1211	3.31028
13.1377	3.29878
13.1543	3.28724
13.171	3.27567
13.1876	3.26405
13.2042	3.25239
13.2209	3.2407
13.2375	3.22896
13.2541	3.21718
13.2707	3.20537
13.2874	3.19351
13.304	3.18162
13.3206	3.16968
13.3373	3.15771
13.3539	3.14569
13.3705	3.13364
13.3872	3.12154
13.4038	3.10941
13.4204	3.09724
13.437	3.08502
13.4537	3.07277
13.4703	3.06048
13.4869	3.04814
13.5036	3.03577
13.5202	3.02336
13.5368	3.01091
13.5535	2.99842
13.5701	2.98589
13.5867	2.97331
13.6033	2.9607
13.62	2.94805
13.6366	2.93536
13.6532	2.92263
13.6699	2.90986
13.6865	2.89705
13.7031	2.88421
13.7197	2.87132
13.7364	2.85839
13.753	2.84542
13.7696	2.83241
13.7863	2.81937
13.8029	2.80628
13.8195	2.79315
13.8362	2.77998
13.8528	2.76678
13.8694	2.75353
13.886	2.74024
13.9027	2.72692
13.9193	2.71355
13.9359	2.70015
13.9526	2.6867
13.9692	2.67322
13.9858	2.65969
14.0025	2.64613
14.0191	2.63253
14.0357	2.61888
14.0524	2.6052
14.069	2.59148
14.0856	2.57771
14.1022	2.56391
14.1189	2.55007
14.1355	2.53619
14.1521	2.52227
14.1688	2.5083
14.1854	2.4943
14.202	2.48026
14.2187	2.46618
14.2353	2.45206
14.2519	2.4379
14.2685	2.4237
14.2852	2.40946
14.3018	2.39518
14.3184	2.38086
14.3351	2.3665
14.3517	2.35211
14.3683	2.33767
14.385	2.32319
14.4016	2.30867
14.4182	2.29411
14.4348	2.27952
14.4515	2.26488
14.4681	2.2502
14.4847	2.23549
14.5014	2.22073
14.518	2.20594
14.5346	2.1911
14.5513	2.17622
14.5679	2.16131
14.5845	2.14635
14.6011	2.13136
14.6178	2.11633
14.6344	2.10125
14.651	2.08614
14.6677	2.07099
14.6843	2.05579
14.7009	2.04056
14.7175	2.02529
14.7342	2.00997
14.7508	1.99462
14.7674	1.97923
14.7841	1.9638
14.8007	1.94833
14.8173	1.93282
14.834	1.91727
14.8506	1.90168
14.8672	1.88605
14.8839	1.87038
14.9005	1.85467
14.9171	1.83892
14.9337	1.82313
14.9504	1.8073
14.967	1.79143
14.9836	1.77552
15.0003	1.75957
15.0169	1.74359
15.0335	1.72756
15.0502	1.71149
15.0668	1.69539
15.0834	1.67924
15.1	1.66305
15.1167	1.64683
15.1333	1.63056
15.1499	1.61425
15.1666	1.59791
15.1832	1.58152
15.1998	1.5651
15.2165	1.54863
15.2331	1.53213
15.2497	1.51559
15.2663	1.499
15.283	1.48238
15.2996	1.46572
15.3162	1.44901
15.3329	1.43227
15.3495	1.41549
15.3661	1.39867
15.3828	1.3818
15.3994	1.3649
15.416	1.34796
15.4326	1.33098
15.4493	1.31396
15.4659	1.2969
15.4825	1.2798
15.4992	1.26266
15.5158	1.24548
15.5324	1.22826
15.549	1.211
15.5657	1.1937
15.5823	1.17636
15.5989	1.15899
15.6156	1.14157
15.6322	1.12411
15.6488	1.10661
15.6655	1.08908
15.6821	1.0715
15.6987	1.05388
15.7153	1.03623
15.732	1.01853
15.7486	1.00079
15.7652	0.983018
15.7819	0.965202
15.7985	0.947347
15.8151	0.929453
15.8318	0.911518
15.8484	0.893544
15.865	0.87553
15.8817	0.857476
15.8983	0.839383
15.9149	0.821249
15.9315	0.803076
15.9482	0.784864
15.9648	0.766611
15.9814	0.748319
15.9981	0.729988
16.0147	0.711616
16.0313	0.693205
16.048	0.674754
16.0646	0.656263
16.0812	0.637732
16.0978	0.619162
16.1145	0.600552
16.1311	0.581902
16.1477	0.563213
16.1644	0.544484
16.181	0.525715
16.1976	0.506906
16.2143	0.488058
16.2309	0.46917
16.2475	0.450242
16.2641	0.431275
16.2808	0.412267
16.2974	0.39322
16.314	0.374134
16.3307	0.355007
16.3473	0.335841
16.3639	0.316635
16.3805	0.297389
16.3972	0.278104
16.4138	0.258779
16.4304	0.239414
16.4471	0.22001
16.4637	0.200565
16.4803	0.181081
16.497	0.161557
16.5136	0.141994
16.5302	0.122391
16.5468	0.102748
16.5635	0.0830651
16.5801	0.0633427
16.5967	0.0435805
16.6134	0.0237787
